﻿{
	"_Sozcukler":
	[	
		{
			"sozcuk" : "DENEUVE: Dünya sınıfı dedektifi simgeler. L'nin diğer adı.",
		},
		{
			"sozcuk" : "ERALDO COIL: Dünya sınıfı dedektifi simgeler. L'nin diğer adı.",
		},
		{
			"sozcuk" : "DEATHNOTE: Shinigamilerin insanları öldürmek için kullandıkları kitap. Türkçe olarak Ölüm Defteri.",
		},
		{
			"sozcuk" : "ICPO: International Crime Police Organization baş harfleri, Uluslararası Suçlular için Polis Organizasyonu.",
		},
		{
			"sozcuk" : "INTERPOL: International Intelligence Agency. Uluslararası suçluları yakalama görevi edinmiş bir kuruluş.",
		},
		{
			"sozcuk" : "KIRA: Light'ın rumuzu. Katil olarak arandığı sırada bu ismi internetten bularak kendi kullanmıştır.",
		},
		{
			"sozcuk" : "L: Dünyaca ünlü bir dedektiftir. Kirayı yakalama görevinde.",
		},
		{
			"sozcuk" : "N: SPK'nın başı. L ile aynı göreve sahip.",
		},
		{
			"sozcuk" : "MELLO: Near ile birlikte çalışır.",
		},
		{
			"sozcuk" : "REM: Misa'nın bayan shinigamisi",
		},
		{
			"sozcuk" : "RYUK: Light'ı takip eden Shinigami. Elmayı sever.",
		},
		{
			"sozcuk" : "SAKURA TV: Kira'nın Dünyası isimli bir programı yayınlayan TV kanalı.",
		},
		{
			"sozcuk" : "SHINIGAMI: Death Note kullanarak insanları öldüren yaratık. Reaper'e benzemektedir.",
		},
		{
			"sozcuk" : "SHINIGAMI EYES: Shinigami Gözleri, öldüreceği insan ile ilgili bilgiler verir.",
		},
		{
			"sozcuk" : "SPK: Secret Provision for Kira grubu FBI ve CIA gibi gizli bir örgüt.",
		},
		{
			"sozcuk" : "WAMMY'S HAUSE: İngilter'de bir yetimler yurdu.",
		},
		{
			"sozcuk" : "WATARI: L'nin arkadaşı. Bilgisayar yoluyla onunla konuşur.",
		},

	]
}